ActsPixelClusterizationAlg                                        INFO Clusterization statistics
|----------|------------|
| RDOs     |    3423993 |
| Clusters |    1165578 |
|----------|------------|
ActsStripClusterizationAlg                                        INFO Clusterization statistics
|----------|------------|
| RDOs     |    1345365 |
| Clusters |    1081478 |
|----------|------------|
ActsHgtdClusterizationAlg                                         INFO Clusterization statistics
|----------|------------|
| RDOs     |     341404 |
| Clusters |     341404 |
|----------|------------|
ActsPixelSpacePointFormationAlg                                   INFO Space Point Formation statistics
|--------------|------------|
| Clusters     |    1165578 |
| Space Points |    1165578 |
|--------------|------------|
ActsStripSpacePointFormationAlg                                   INFO Space Point Formation statistics
|----------------------|------------|
| Clusters             |    1081478 |
| Space Points         |     325456 |
| Overlap Space Points |      94491 |
|----------------------|------------|
ActsPixelSeedingAlg                                               INFO Seed statistics
|---------------------|------------|
| Spacepoints         |    1165578 |
| Seeds               |     123542 |
| No track parameters |          0 |
|---------------------|------------|
ActsStripSeedingAlg                                               INFO Seed statistics
|---------------------|------------|
| Spacepoints         |     419947 |
| Seeds               |      24791 |
| No track parameters |          0 |
|---------------------|------------|
ActsTrackFindingAlg                                               INFO statistics
|-----------------------------------|------------|------------|------------|
|                           All eta | PPP        | SSS        | ALL        |
|-----------------------------------|------------|------------|------------|
| Input seeds                       |     123542 |      24791 |     148333 |
| No track parameters               |          0 |          0 |          0 |
| Used   seeds                      |      78100 |      15627 |      93727 |
| Cannot find track                 |      63276 |      11851 |      75127 |
| Duplicate seeds                   |      45442 |       9164 |      54606 |
| CKF tracks                        |      14824 |       3776 |      18600 |
| Rejected refined parameters       |          0 |          0 |          0 |
| selected tracks                   |      13389 |        832 |      14221 |
| Stopped tracks reaching max holes |      60862 |      11356 |      72218 |
| Seeds with more than one branch   |          0 |          0 |          0 |
| Tracks failing second CKF         |          0 |          0 |          0 |
| Stopped tracks below pT cut       |       2414 |        495 |       2909 |
| Stopped tracks above max eta      |          0 |          0 |          0 |
|-----------------------------------|------------|------------|------------|
ActsTrackFindingAlg                                               INFO Ratios
|------------------------------------------|------------|------------|------------|
|                                          | PPP        | SSS        | ALL        |
|------------------------------------------|------------|------------|------------|
| failed / seeds                           |   0.512182 |   0.478036 |   0.506475 |
| duplication / seeds                      |   0.367826 |    0.36965 |   0.368131 |
| Rejected refined params / seeds          |          0 |          0 |          0 |
| selected / CKF tracks                    |   0.903198 |   0.220339 |    0.76457 |
| selected tracks / used seeds             |   0.171434 |  0.0532412 |   0.151728 |
| branched tracks / used seeds             |          0 |          0 |          0 |
| no 2nd CKF / CKF tracks                  |          0 |          0 |          0 |
|------------------------------------------|------------|------------|------------|
| selected / CKF tracks           0.0- 0.5 |   0.890205 |   0.124352 |   0.711259 |
|                                 0.5- 1.0 |   0.913255 |   0.257692 |   0.739419 |
|                                 1.0- 1.5 |    0.88605 |   0.216418 |   0.705141 |
|                                 1.5- 2.0 |   0.793103 |   0.239784 |    0.56338 |
|                                 2.0- 2.5 |    0.94335 |   0.215251 |   0.697326 |
|                                 2.5- 3.0 |   0.882635 |          0 |   0.882282 |
|                                 3.0- 3.5 |   0.936117 |          0 |   0.936117 |
|                                 3.5-+inf |   0.960328 |          0 |   0.960328 |
|------------------------------------------|------------|------------|------------|
ActsPrdAssociationAlg                                             INFO Prd Map statistics
|-----------------------|------------|
| N. Tracks             |       9550 |
| N. Pixel Measurements |     102127 |
| N. Strip Measurements |      40058 |
| N. Hgtd Measurements  |         23 |
|-----------------------|------------|
ActsLargeRadiusPixelClusterPreparationAlg                         INFO Data Prep statistics
|---------|------------|
| Inputs  |    1165578 |
| Outputs |    1063523 |
|---------|------------|
ActsLargeRadiusStripClusterPreparationAlg                         INFO Data Prep statistics
|---------|------------|
| Inputs  |    1081478 |
| Outputs |    1041455 |
|---------|------------|
ActsLargeRadiusHgtdClusterPreparationAlg                          INFO Data Prep statistics
|---------|------------|
| Inputs  |     341404 |
| Outputs |     341381 |
|---------|------------|
ActsLargeRadiusStripSpacePointPreparationAlg                      INFO Data Prep statistics
|---------|------------|
| Inputs  |     325456 |
| Outputs |     303582 |
|---------|------------|
ActsLargeRadiusStripOv...pSpacePointPreparationAlg                INFO Data Prep statistics
|---------|------------|
| Inputs  |      94491 |
| Outputs |      88165 |
|---------|------------|
ActsLargeRadiusStripSeedingAlg                                    INFO Seed statistics
|---------------------|------------|
| Spacepoints         |     391747 |
| Seeds               |       9681 |
| No track parameters |          0 |
|---------------------|------------|
ActsLargeRadiusTrackFindingAlg                                    INFO statistics
|-----------------------------------|------------|------------|
|                           All eta | SSS        | ALL        |
|-----------------------------------|------------|------------|
| Input seeds                       |       9681 |       9681 |
| No track parameters               |          0 |          0 |
| Used   seeds                      |       9494 |       9494 |
| Cannot find track                 |       8539 |       8539 |
| Duplicate seeds                   |        187 |        187 |
| CKF tracks                        |        955 |        955 |
| Rejected refined parameters       |          0 |          0 |
| selected tracks                   |        113 |        113 |
| Stopped tracks reaching max holes |       6653 |       6653 |
| Seeds with more than one branch   |          0 |          0 |
| Tracks failing second CKF         |          0 |          0 |
| Stopped tracks below pT cut       |       1886 |       1886 |
| Stopped tracks above max eta      |          0 |          0 |
|-----------------------------------|------------|------------|
ActsLargeRadiusTrackFindingAlg                                    INFO Ratios
|------------------------------------------|------------|------------|
|                                          | SSS        | ALL        |
|------------------------------------------|------------|------------|
| failed / seeds                           |   0.882037 |   0.882037 |
| duplication / seeds                      |  0.0193162 |  0.0193162 |
| Rejected refined params / seeds          |          0 |          0 |
| selected / CKF tracks                    |   0.118325 |   0.118325 |
| selected tracks / used seeds             |  0.0119023 |  0.0119023 |
| branched tracks / used seeds             |          0 |          0 |
| no 2nd CKF / CKF tracks                  |          0 |          0 |
|------------------------------------------|------------|------------|
| selected / CKF tracks           0.0- 0.5 |   0.169014 |   0.169014 |
|                                 0.5- 1.0 |   0.214286 |   0.214286 |
|                                 1.0- 1.5 |   0.228261 |   0.228261 |
|                                 1.5- 2.0 |   0.102689 |   0.102689 |
|                                 2.0- 2.5 |  0.0668896 |  0.0668896 |
|                                 2.5- 3.0 |          0 |          0 |
|                                 3.0- 3.5 |          0 |          0 |
|                                 3.5-+inf |          0 |          0 |
|------------------------------------------|------------|------------|
ActsLargeRadiusPrdAssociationAlg                                  INFO Prd Map statistics
|-----------------------|------------|
| N. Tracks             |         85 |
| N. Pixel Measurements |        486 |
| N. Strip Measurements |        799 |
| N. Hgtd Measurements  |          1 |
|-----------------------|------------|
ActsConversionPixelClusterPreparationAlg                          INFO Data Prep statistics
|---------|------------|
| Inputs  |    1165578 |
| Outputs |      27114 |
|---------|------------|
ActsConversionStripClusterPreparationAlg                          INFO Data Prep statistics
|---------|------------|
| Inputs  |    1081478 |
| Outputs |      15516 |
|---------|------------|
ActsConversionHgtdClusterPreparationAlg                           INFO Data Prep statistics
|---------|------------|
| Inputs  |     341404 |
| Outputs |     341380 |
|---------|------------|
ActsConversionStripSpacePointPreparationAlg                       INFO Data Prep statistics
|---------|------------|
| Inputs  |     325456 |
| Outputs |       4502 |
|---------|------------|
ActsConversionStripSeedingAlg                                     INFO Seed statistics
|---------------------|------------|
| Spacepoints         |       4502 |
| Seeds               |         71 |
| No track parameters |          0 |
|---------------------|------------|
ActsConversionTrackFindingAlg                                     INFO statistics
|-----------------------------------|------------|------------|
|                           All eta | SSS        | ALL        |
|-----------------------------------|------------|------------|
| Input seeds                       |         71 |         71 |
| No track parameters               |          0 |          0 |
| Used   seeds                      |         71 |         71 |
| Cannot find track                 |         54 |         54 |
| Duplicate seeds                   |          0 |          0 |
| CKF tracks                        |         17 |         17 |
| Rejected refined parameters       |          0 |          0 |
| selected tracks                   |          0 |          0 |
| Stopped tracks reaching max holes |         46 |         46 |
| Seeds with more than one branch   |          0 |          0 |
| Tracks failing second CKF         |          0 |          0 |
| Stopped tracks below pT cut       |          8 |          8 |
| Stopped tracks above max eta      |          0 |          0 |
|-----------------------------------|------------|------------|
ActsConversionTrackFindingAlg                                     INFO Ratios
|------------------------------------------|------------|------------|
|                                          | SSS        | ALL        |
|------------------------------------------|------------|------------|
| failed / seeds                           |   0.760563 |   0.760563 |
| duplication / seeds                      |          0 |          0 |
| Rejected refined params / seeds          |          0 |          0 |
| selected / CKF tracks                    |          0 |          0 |
| selected tracks / used seeds             |          0 |          0 |
| branched tracks / used seeds             |          0 |          0 |
| no 2nd CKF / CKF tracks                  |          0 |          0 |
|------------------------------------------|------------|------------|
| selected / CKF tracks           0.0- 0.5 |          0 |          0 |
|                                 0.5- 1.0 |          0 |          0 |
|                                 1.0- 1.5 |          0 |          0 |
|                                 1.5- 2.0 |          0 |          0 |
|                                 2.0- 2.5 |          0 |          0 |
|                                 2.5- 3.0 |          0 |          0 |
|                                 3.0- 3.5 |          0 |          0 |
|                                 3.5-+inf |          0 |          0 |
|------------------------------------------|------------|------------|
ActsConversionPrdAssociationAlg                                   INFO Prd Map statistics
|-----------------------|------------|
| N. Tracks             |          0 |
| N. Pixel Measurements |          0 |
| N. Strip Measurements |          0 |
| N. Hgtd Measurements  |          0 |
|-----------------------|------------|
ActsLowPtPixelClusterPreparationAlg                               INFO Data Prep statistics
|---------|------------|
| Inputs  |    1165578 |
| Outputs |    1063038 |
|---------|------------|
ActsLowPtStripClusterPreparationAlg                               INFO Data Prep statistics
|---------|------------|
| Inputs  |    1081478 |
| Outputs |    1040656 |
|---------|------------|
ActsLowPtHgtdClusterPreparationAlg                                INFO Data Prep statistics
|---------|------------|
| Inputs  |     341404 |
| Outputs |     341380 |
|---------|------------|
ActsLowPtPixelSpacePointPreparationAlg                            INFO Data Prep statistics
|---------|------------|
| Inputs  |    1165578 |
| Outputs |    1063038 |
|---------|------------|
ActsLowPtStripSpacePointPreparationAlg                            INFO Data Prep statistics
|---------|------------|
| Inputs  |     325456 |
| Outputs |     303159 |
|---------|------------|
ActsLowPtStripOverlapSpacePointPreparationAlg                     INFO Data Prep statistics
|---------|------------|
| Inputs  |      94491 |
| Outputs |      88016 |
|---------|------------|
ActsLowPtPixelSeedingAlg                                          INFO Seed statistics
|---------------------|------------|
| Spacepoints         |    1063038 |
| Seeds               |      46839 |
| No track parameters |          0 |
|---------------------|------------|
ActsLowPtStripSeedingAlg                                          INFO Seed statistics
|---------------------|------------|
| Spacepoints         |     391175 |
| Seeds               |       9213 |
| No track parameters |          0 |
|---------------------|------------|
ActsLowPtTrackFindingAlg                                          INFO statistics
|-----------------------------------|------------|------------|------------|
|                           All eta | PPP        | SSS        | ALL        |
|-----------------------------------|------------|------------|------------|
| Input seeds                       |      46839 |       9213 |      56052 |
| No track parameters               |          0 |          0 |          0 |
| Used   seeds                      |      46030 |       8887 |      54917 |
| Cannot find track                 |      44880 |       7133 |      52013 |
| Duplicate seeds                   |        809 |        326 |       1135 |
| CKF tracks                        |       1150 |       1754 |       2904 |
| Rejected refined parameters       |          0 |          0 |          0 |
| selected tracks                   |        620 |         48 |        668 |
| Stopped tracks reaching max holes |      44439 |       7090 |      51529 |
| Seeds with more than one branch   |          0 |          0 |          0 |
| Tracks failing second CKF         |          0 |          1 |          1 |
| Stopped tracks below pT cut       |        441 |         43 |        484 |
| Stopped tracks above max eta      |          0 |          0 |          0 |
|-----------------------------------|------------|------------|------------|
ActsLowPtTrackFindingAlg                                          INFO Ratios
|------------------------------------------|------------|------------|------------|
|                                          | PPP        | SSS        | ALL        |
|------------------------------------------|------------|------------|------------|
| failed / seeds                           |   0.958176 |   0.774232 |   0.927942 |
| duplication / seeds                      |  0.0172719 |  0.0353848 |  0.0202491 |
| Rejected refined params / seeds          |          0 |          0 |          0 |
| selected / CKF tracks                    |    0.53913 |   0.027366 |   0.230028 |
| selected tracks / used seeds             |  0.0134695 | 0.00540115 |  0.0121638 |
| branched tracks / used seeds             |          0 |          0 |          0 |
| no 2nd CKF / CKF tracks                  |          0 | 0.000570125 | 0.000344353 |
|------------------------------------------|------------|------------|------------|
| selected / CKF tracks           0.0- 0.5 |   0.833333 |          0 |       0.36 |
|                                 0.5- 1.0 |   0.965909 |  0.0215827 |   0.387665 |
|                                 1.0- 1.5 |   0.948905 |  0.0701754 |   0.461039 |
|                                 1.5- 2.0 |   0.917431 |   0.044733 |    0.32451 |
|                                 2.0- 2.5 |  0.0657895 | 0.00328947 |  0.0102339 |
|                                 2.5- 3.0 |  0.0130435 |          0 |   0.012987 |
|                                 3.0- 3.5 |  0.0185185 |          0 |  0.0185185 |
|                                 3.5-+inf |  0.0657895 |          0 |  0.0657895 |
|------------------------------------------|------------|------------|------------|
ActsLowPtPrdAssociationAlg                                        INFO Prd Map statistics
|-----------------------|------------|
| N. Tracks             |        508 |
| N. Pixel Measurements |       3838 |
| N. Strip Measurements |       4211 |
| N. Hgtd Measurements  |          0 |
|-----------------------|------------|
